"M","184","HPRC16000005","MARTINEZ ROSENDO                        ","M","25/10/1969","N","Sin observaciones","29/11/2016","77777","2","DNI","20123456","45","03414456789    ","24 De Setiembre  890          ","7                           "
"H","184","HPRC16000005","243Q    ","                                        ","                                        ","                                        ","                                        ","                                        ","                                        ","                                        ","                                        ","                                        ","N"
"H","184","HPRC16000005","243E    ","                                        ","                                        ","                                        ","                                        ","                                        ","                                        ","                                        ","                                        ","                                        ","N"
"H","184","HPRC16000005","503     ","                                        ","                                        ","                                        ","                                        ","                                        ","                                        ","                                        ","                                        ","                                        ","N"
"H","184","HPRC16000005","087     ","                                        ","                                        ","                                        ","                                        ","                                        ","                                        ","                                        ","                                        ","                                        ","N"
"H","184","HPRC16000005","495D    ","                                        ","                                        ","                                        ","                                        ","                                        ","                                        ","                                        ","                                        ","                                        ","N"
"H","184","HPRC16000005","063     ","                                        ","                                        ","                                        ","                                        ","                                        ","                                        ","                                        ","                                        ","                                        ","N"
"H","184","HPRC16000005","063Q    ","                                        ","                                        ","                                        ","                                        ","                                        ","                                        ","                                        ","                                        ","                                        ","N"
"H","184","HPRC16000005","063HTL  ","                                        ","                                        ","                                        ","                                        ","                                        ","                                        ","                                        ","                                        ","                                        ","N"

"M","184","HPRC16000006","RODRIGUEZ SAMUEL                        ","M","26/10/1995","N","Sin observaciones","29/11/2016","77777","3","DNI","20654321","45","               ","Alvear  112                   ","8                           "
"H","184","HPRC16000006","243Q    ","                                        ","                                        ","                                        ","                                        ","                                        ","                                        ","                                        ","                                        ","                                        ","N"
"H","184","HPRC16000006","243E    ","                                        ","                                        ","                                        ","                                        ","                                        ","                                        ","                                        ","                                        ","                                        ","N"
"H","184","HPRC16000006","503     ","                                        ","                                        ","                                        ","                                        ","                                        ","                                        ","                                        ","                                        ","                                        ","N"
"H","184","HPRC16000006","087     ","                                        ","                                        ","                                        ","                                        ","                                        ","                                        ","                                        ","                                        ","                                        ","N"
"H","184","HPRC16000006","495D    ","                                        ","                                        ","                                        ","                                        ","                                        ","                                        ","                                        ","                                        ","                                        ","N"
"H","184","HPRC16000006","063     ","                                        ","                                        ","                                        ","                                        ","                                        ","                                        ","                                        ","                                        ","                                        ","N"
"H","184","HPRC16000006","063Q    ","                                        ","                                        ","                                        ","                                        ","                                        ","                                        ","                                        ","                                        ","                                        ","N"
"H","184","HPRC16000006","063HTL  ","                                        ","                                        ","                                        ","                                        ","                                        ","                                        ","                                        ","                                        ","                                        ","N"

